893092 145957 525
331726 963939 525
330014 267606 407
218619 259234 443
48471 851858 525
436569 551041 470
418540 525146 470
96096 404874 443
865223 348670 525
748826 417962 509
512927 447394 470
272124 846989 525
607793 327175 470
717543 715255 380
527178 762798 509
690357 966867 525
825828 259768 509
508502 827627 509
547168 31113 470
449005 815994 509
80399 242196 443
173512 663558 509
952319 897329 507
28048 908208 525
593324 37888 470
843711 548400 525
226544 694190 509
819503 799664 450
204764 207692 373
393466 206163 443
336967 631833 509
977401 280851 525
219042 908094 525
871462 76808 525
787489 864433 525
853027 830944 525
517094 494588 470
566617 446563 470
630142 413227 509
487135 91781 449
127497 264749 443
448570 113439 449
705405 498576 509
649609 289327 509
360675 18745 443
373236 505534 449
267500 520726 470
43339 292704 443
88831 809828 509
673185 22285 509
205584 60893 383
371798 151592 443
528667 310246 470
357452 224576 443
836458 317633 509
595096 135204 470
447411 488079 444
265226 684358 509
391719 933895 525
419344 153766 449
24663 176750 383
468856 72953 449
267212 991695 525
791280 895918 525
393220 49567 443
22215 624468 470
328696 540708 470
362916 818790 509
270 392253 443
492913 841419 525
868255 997342 507
823393 294871 509
352972 783627 509
994855 73191 525
667920 289904 509
17670 668035 509
601703 34430 470
509614 202546 449
273912 705230 509
484324 821769 509
896491 516311 525
219748 336503 443
50227 111672 354
698639 317087 509
609295 603594 403
263518 593735 470
653127 361507 509
800301 212892 509
711681 911379 525
635752 566700 509
753135 458053 509
187861 9095 383
472989 695273 509
909660 900399 445
238200 340996 407
841446 239063 525
170295 970552 525
324547 47583 443
89494 994789 525
963589 454622 525
324817 123378 443
232411 527546 470
121451 968848 525
791826 992083 525
668785 36205 509
268578 892033 525
739068 612207 509
77063 366969 443
354009 977946 525
248655 403588 441
865328 728143 525
45598 512506 470
604770 51814 470
615207 637562 509
28705 268232 443
250125 900102 525
527433 104317 470
547657 587165 434
500310 796544 509
34217 938849 525
628210 995667 525
897324 96826 525
113269 910698 525
917338 208597 525
175939 874984 525
305939 73656 443
264965 45906 443
87833 899757 525
53742 911167 525
58184 300897 443
893906 834426 525
477421 693287 509
210370 548219 470
779017 735768 468
583623 725849 509
930040 225541 525
816355 501799 509
547424 714345 509
32698 968727 525
474868 724842 509
564897 970217 525
935082 275172 525
120583 553933 470
131861 142926 375
236048 186418 443
659996 613413 509
340604 50755 443
625464 89150 470
164929 364772 443
810577 750303 468
602450 116554 470
494598 239268 449
641886 814118 504
6394 58186 340
294892 293087 358
724449 438003 509
71929 718289 509
22447 403270 443
792145 744420 468
159600 707977 509
74056 215051 383
896479 227224 525
721068 310848 509
914766 588687 525
64286 345667 443
593775 316170 470
407637 152429 443
829375 896863 525
389693 842097 525
556898 921807 525
350714 456944 449
472250 502169 426
912849 625423 525
919688 918132 339
798756 102111 509
644134 635910 416
656661 286224 509
580907 440932 470
49985 326056 443
229244 742940 509
96766 654195 509
737892 92766 509
205607 78476 383
285986 547812 470
967144 428248 525
977416 556751 525
282697 853205 525
161245 747991 509
228420 63948 386
35985 195458 383
62159 3766 340
93965 387061 443
435251 977986 525
813230 670025 504
410717 651478 509
134444 732884 509
898234 724788 525
673257 400708 509
689617 633059 442
161060 49650 383
475937 608728 470
770455 573938 509
106193 703748 509
416863 645929 509
308131 916041 525
164930 912852 525
26416 794065 509
238343 601962 470
969331 296632 525
60436 301502 443
819514 400778 509
297471 598616 470
714017 127292 509
72785 701484 509
366279 871254 525
88705 767993 509
337202 112830 443
730366 297971 509
172133 916953 525
731218 64619 509
483827 6295 449
515553 750074 509
259846 922579 525
176746 889396 525
473864 526958 470
237720 26882 443
126247 992052 525
472835 64498 449
643175 584341 509
797175 781655 468
291575 554091 470
153410 535572 470
262101 775172 509
842479 222761 525
978703 669328 525
846602 950470 507
378874 989621 525
946280 76059 525
74130 820702 509
286741 641259 509
48459 675380 509
172306 56077 383
476610 385504 449
604500 585439 403
361391 270037 441
770174 92067 509
666397 466303 509
79706 722736 509
793819 494055 509
19824 713840 509
